<?xml version="1.0" encoding="UTF-8"?>
<svg width="298px" height="150px" viewBox="0 0 298 150" version="1.1" xmlns="http://www.w3.org/2000/svg" xmlns:xlink="http://www.w3.org/1999/xlink">
    <!-- Generator: Sketch 59.1 (86144) - https://sketch.com -->
    <title>mcd3</title>
    <desc>Created with Sketch.</desc>
    <g id="Page-1" stroke="none" stroke-width="1" fill="none" fill-rule="evenodd">
        <g id="mcd3" fill-rule="nonzero">
            <path d="M45.6,3.5 C46.2,1.4 48.2,0 50.3,0 L292.8,0 C296.1,0 298.5,3.2 297.5,6.4 L252.4,146.5 C251.8,148.6 249.8,150 247.7,150 L5.2,150 C1.9,150 -0.5,146.8 0.5,143.6 L45.6,3.5 Z" id="Path" fill="#E95B0C"></path>
            <g id="Group" transform="translate(59.000000, 25.000000)" fill="#FFFFFF">
                <path d="M170.7,46.4 L170.7,46.4 L170.7,46.4 L170.7,46.4 L170.7,46.4 C166.1,41.7 160.7,38.7 154.2,37.4 L177.1,14.5 L177.1,0.7 L113.8,0.7 L113.8,17.2 L154.3,17.2 L130.5,41 L130.5,52.7 L133,52.3 C134.1,52.2 135.2,52.1 136.5,51.9 C137.8,51.7 138.9,51.8 140.1,51.8 C146.2,51.8 151.1,53.2 155.2,56 C159,58.6 161,62.3 161,67.4 C161,72.2 159.3,76 155.7,78.8 L155.7,78.8 C152.1,81.7 147.9,83.1 142.7,83.1 C138.2,83.1 134.3,82.4 130.8,80.9 C127.2,79.3 124,77.2 120.9,74.3 L119.4,72.9 L107.5,84.8 L109,86.3 C113,90.3 117.9,93.5 123.8,96 L123.8,96 L123.8,96 L123.8,96 C129.8,98.4 136.1,99.5 143,99.5 C153,99.5 161.7,96.4 168.7,90.2 C175.6,84 179.2,76.3 179.2,67.3 C179,58.9 176.3,52 170.7,46.4 Z" id="Path"></path>
                <path d="M82.3,14.4 L82.3,14.4 L82.3,14.4 L82.3,14.4 C73.4,5.1 61.2,0.6 46,0.6 L5.1,0.6 L0.9,16.7 L13.9,16.7 L13.9,97.7 L46,97.7 C61.2,97.7 73.4,93.2 82.3,84.1 L82.3,84.1 L82.3,84.1 C91.1,74.9 95.4,63.3 95.4,49.3 C95.6,35.2 91.1,23.6 82.3,14.4 L82.3,14.4 Z M77,49.3 C77,60.5 73.9,68.4 68,73.7 C62.1,79 54.5,81.8 45.2,81.8 L31.9,81.8 L31.9,16.9 L45.2,16.9 C54.6,16.9 62.2,19.6 68,25.1 L68,25.1 L68,25.1 L68,25.1 C73.9,30.4 77,38.3 77,49.3 Z" id="Shape"></path>
            </g>
        </g>
    </g>
</svg>